…
``` r
library(estatapi.appId)
set_appId("XXX")
```

e-Stat
APIを操作する各関数の基本的な挙動はもともとの`{estatapi}`と変わりません。

`{estatapi}`と`{estatapi.appId}`とのe-Stat
APIを操作する各関数の変更点は、`{estatapi.appId}`では引数の`appId`が一番最後になっており、既定値が`NULL`になっていますが、`set_appId()`で設定されて入ればその値が代入されるようになっています。

``` r
estat_getStatsList("チョコレート")
#> # A tibble: 258 × 22
#>    `@id`     STAT_…¹ GOV_ORG STATI…² TITLE CYCLE SURVE…³ OPEN_…⁴ SMALL…⁵ COLLE…⁶
#>    <chr>     <chr>   <chr>   <chr>   <chr> <chr> <chr>   <chr>   <chr>   <chr>  
#>  1 00001000… 全国物… 総務省  平成9…  価格… -     199711  2007-0… 0       該当な…
#>  2 00001001… 全国物… 総務省  平成9…  価格… -     199711  2007-0… 0       該当な…
#>  3 00001001… 全国物… 総務省  平成9…  指数… -     199711  2007-0… 0       該当な…
#>  4 00001001… 全国物… 総務省  平成9…  指数… -     199711  2007-0… 0       該当な…
#>  5 00001001… 全国物… 総務省  平成9…  品目… -     199711  2007-0… 0       該当な…
#>  6 00001001… 全国物… 総務省  平成9…  品目… -     199711  2007-0… 0       該当な…
#>  7 00001001… 全国物… 総務省  平成9…  品目… -     199711  2007-0… 0       該当な…
#>  8 00001001… 全国物… 総務省  平成9…  品目… -     199711  2007-0… 0       該当な…
#>  9 00034481… 工業統… 経済産… 工業統… 品目… 年次  202001… 2022-0… 0       該当な…
#> 10 00031265… 工業統… 経済産… 工業統… 品目… 年次  201301… 2015-0… 0       該当な…
#> # … with 248 more rows, 12 more variables: MAIN_CATEGORY <chr>,
#> #   SUB_CATEGORY <chr>, OVERALL_TOTAL_NUMBER <chr>, UPDATED_DATE <chr>,
#> #   TABULATION_CATEGORY <chr>, TABULATION_SUB_CATEGORY1 <chr>,
#> #   DESCRIPTION <chr>, TABLE_CATEGORY <chr>, TABLE_NAME <chr>,
#> #   TABULATION_SUB_CATEGORY2 <chr>, TABLE_SUB_CATEGORY1 <chr>,
#> #   TABULATION_SUB_CATEGORY3 <chr>, and abbreviated variable names ¹​STAT_NAME,
#> #   ²​STATISTICS_NAME, ³​SURVEY_DATE, ⁴​OPEN_DATE, ⁵​SMALL_AREA, ⁶​COLLECT_AREA
```
…
